Breaks stratification — strat_breaks • sgsR
…
strat_breaks(
  mraster = mr[[1:2]],
  breaks = list(br.zq90, br.pz2),
  details = TRUE
)
#> $breaks
#> # A tibble: 22 × 3
#>    strata_zq90 strata_pzabove2 strata
#>          <dbl>           <dbl>  <int>
#>  1           1               1      1
#>  2           1               2      2
#>  3           2               1      3
#>  4           2               2      4
#>  5           2               3      5
#>  6           2               4      6
#>  7           2               5      7
#>  8           3               1      8
#>  9           3               2      9
#> 10           3               3     10
#> # ℹ 12 more rows
…
